A complete multiverse analysis
…
We can then inspect the default analysis the default single universe analysis from this multiverse:

M$df

## # A tibble: 502 x 30
##    WorkerID  Rel1  Rel2  Rel3 Abortion Marriage StemCell RestrictAbortion
##       <dbl> <dbl> <dbl> <dbl>    <dbl>    <dbl>    <dbl>            <dbl>
##  1        1     8     8     7        6        7        1                7
##  2        2     8     7     7        1        2        3                1
##  3        3     6     6     2        5        1        2                4
##  4        4     7     8     6        1        5        2                2
##  5        5     7     7     9        1        1        4                1
##  6        6     9     9     9        7        7        2                7
##  7        7     5     8     5        3        4        3                5
##  8        8     1     1     1        1        1        2                1
##  9        9     7     7     7        5        1        2                1
## 10       10     6     6     6        3        5        3                1
## # … with 492 more rows, and 22 more variables: Marijuana <dbl>,
## #   FreeMarket <dbl>, RichTax <dbl>, StLiving <dbl>, Profit <dbl>,
## #   PrivSocialSec <dbl>, Sure1 <dbl>, Sure2 <dbl>, Relationship <fct>,
## #   ReportedCycleLength <dbl>, Vote <dbl>, Donate <dbl>,
## #   DateTesting <date>, StartDateofLastPeriod <date>,
## #   StartDateofPeriodBeforeLast <date>, StartDateNext <date>,
## #   FiscConsComp <dbl>, SocConsComp <dbl>, ComputedCycleLength <drtn>,
## #   NextMenstrualOnset <date>, CycleDay <dbl>, Fertility <fct>
…
