Example multiverse implementation: Re-evaluating the efficiency of physical visualizations • multiverse
…
expand(M) %>%
  mutate( summary = map(.results, "df") ) %>%
  unnest_wider( c(summary)) %>%
  unnest(cols = c(modality, estimate, conf.low, conf.high)) %>%
  mutate(
    estimate = ifelse(data_transform == "log-transformed", exp(estimate), estimate),
    conf.low = ifelse(data_transform == "log-transformed", exp(conf.low), conf.low),
    conf.high = ifelse(data_transform == "log-transformed", exp(conf.high), conf.high)
  ) %>%
  arrange(conf_level, desc(data_transform), desc(ci_method))

## # A tibble: 64 × 12
##    .universe ci_method data_transform  conf_level .parameter_assignment
##        <int> <chr>     <chr>           <chr>      <list>               
##  1         5 t based   untransformed   50%        <named list [3]>     
##  2         5 t based   untransformed   50%        <named list [3]>     
##  3         5 t based   untransformed   50%        <named list [3]>     
##  4         5 t based   untransformed   50%        <named list [3]>     
##  5        13 bootstrap untransformed   50%        <named list [3]>     
##  6        13 bootstrap untransformed   50%        <named list [3]>     
##  7        13 bootstrap untransformed   50%        <named list [3]>     
##  8        13 bootstrap untransformed   50%        <named list [3]>     
##  9         1 t based   log-transformed 50%        <named list [3]>     
## 10         1 t based   log-transformed 50%        <named list [3]>     
## # ℹ 54 more rows
## # ℹ 7 more variables: .code <list>, .results <list>, .errors <list>,
## #   modality <chr>, estimate <dbl>, conf.low <dbl>, conf.high <dbl>
…
