Exporting the output of a multiverse to JSON for Milliways, a multiverse visualisation tool • multiverse
…
expand(M) %>%
  extract_variables(summary_RelComp) %>%
  unnest( cols = c(summary_RelComp) ) %>%
  mutate( term = recode( term, 
                 "RelationshipStatusSingle" = "Single",
                 "Fertilitylow:RelationshipStatusSingle" = "Single:Fertility_low"
  )) %>%
  export_results_json(term, estimate, std.error) |> 
  unnest(results) |> 
  select(.universe, term, estimate, std.error, cdf.x, cdf.y)

## # A tibble: 960 × 6
##    .universe term                 estimate std.error cdf.x       cdf.y      
##        <int> <chr>                   <dbl>     <dbl> <list>      <list>     
##  1         1 (Intercept)             6.37      0.405 <dbl [101]> <dbl [101]>
##  2         1 Fertilitylow           -1.16      0.534 <dbl [101]> <dbl [101]>
##  3         1 Single                 -1.51      0.538 <dbl [101]> <dbl [101]>
##  4         1 Single:Fertility_low    2.05      0.714 <dbl [101]> <dbl [101]>
##  5         2 (Intercept)             5.78      0.322 <dbl [101]> <dbl [101]>
##  6         2 Fertilitylow           -0.583     0.428 <dbl [101]> <dbl [101]>
##  7         2 Single                 -0.859     0.583 <dbl [101]> <dbl [101]>
##  8         2 Single:Fertility_low    1.85      0.772 <dbl [101]> <dbl [101]>
##  9         3 (Intercept)             6.37      0.402 <dbl [101]> <dbl [101]>
## 10         3 Fertilitylow           -1.16      0.531 <dbl [101]> <dbl [101]>
## # ℹ 950 more rows
…
