A multiverse analysis of the efficiency of physical visualizations • multiverse
…
ci_method <- "bootstrappedCI"
data_transform <- identity
conf_level <- 0.99

ci_method <- "bootstrappedCI"
data_transform <- identity
conf_level <- 0.999

We now look at the multiverse table and see that it has created all the possible combinations:

expand(M)

## # A tibble: 24 x 7
##    .universe ci_method data_transform conf_level .parameter_assi… .code .results
##        <int> <chr>     <chr>          <chr>      <list>           <lis> <list>  
##  1         1 t based   log-transform… 50%        <named list [3]> <nam… <env>   
##  2         2 t based   log-transform… 67         <named list [3]> <nam… <env>   
##  3         3 t based   log-transform… 89         <named list [3]> <nam… <env>   
##  4         4 t based   log-transform… 95%        <named list [3]> <nam… <env>   
##  5         5 t based   log-transform… 99%        <named list [3]> <nam… <env>   
##  6         6 t based   log-transform… 99.9%      <named list [3]> <nam… <env>   
##  7         7 t based   untransformed  50%        <named list [3]> <nam… <env>   
##  8         8 t based   untransformed  67         <named list [3]> <nam… <env>   
##  9         9 t based   untransformed  89         <named list [3]> <nam… <env>   
## 10        10 t based   untransformed  95%        <named list [3]> <nam… <env>   
## # … with 14 more rows
…
So far we have tried to keep this analysis in base R. However, the steps involved in extracting and visualising results from the multiverse maybe more convenient for some using the tidyverse API. We can implement the steps that we have taken in the previous three code block in the following way using the tidyverse. The result of this is the same data frame that was created in the previous step, and was used as input data to ggplot, df.results. The multiverse package is flexible, and does not restrict you towards a particular style of R programming.

expand(M) %>%
  mutate( index = seq(1:nrow(.)) ) %>%
  mutate( summary = map(.results, "df") ) %>%
  unnest_wider( c(summary)) %>%
  unnest(cols = c(modality, estimate, conf.low, conf.high)) %>%
  mutate(
    estimate = ifelse(data_transform == "log-transformed", exp(estimate), estimate),
    conf.low = ifelse(data_transform == "log-transformed", exp(conf.low), conf.low),
    conf.high = ifelse(data_transform == "log-transformed", exp(conf.high), conf.high)
  ) %>%
  arrange(conf_level, desc(data_transform), desc(ci_method))

## # A tibble: 96 x 12
##    .universe ci_method data_transform conf_level .parameter_assi… .code .results
##        <int> <chr>     <chr>          <chr>      <list>           <lis> <list>  
##  1         7 t based   untransformed  50%        <named list [3]> <nam… <env>   
##  2         7 t based   untransformed  50%        <named list [3]> <nam… <env>   
##  3         7 t based   untransformed  50%        <named list [3]> <nam… <env>   
##  4         7 t based   untransformed  50%        <named list [3]> <nam… <env>   
##  5        19 bootstrap untransformed  50%        <named list [3]> <nam… <env>   
##  6        19 bootstrap untransformed  50%        <named list [3]> <nam… <env>   
##  7        19 bootstrap untransformed  50%        <named list [3]> <nam… <env>   
##  8        19 bootstrap untransformed  50%        <named list [3]> <nam… <env>   
##  9         1 t based   log-transform… 50%        <named list [3]> <nam… <env>   
## 10         1 t based   log-transform… 50%        <named list [3]> <nam… <env>   
## # … with 86 more rows, and 5 more variables: index <int>, modality <chr>,
## #   estimate <dbl>, conf.low <dbl>, conf.high <dbl>
…
