Extracting and Visualizing the results of a multiverse analysis • multiverse
…
Finally, we will execute all the generated analysis combinations in the multiverse, since so far we have only defined them.

execute_multiverse(M)

Extracting the results

All the computed summaries (summary_RelComp, summary_FiscConsComp, summary_SocConsComp, summary_Donate and summary_Vote) are stored within .results column (a separate environment) in the multiverse table. We can extract these summaries as a tibble using and store it in a separate column, and then unnest this new column:

expand(M) %>%
  mutate( summary = map(.results, "summary_RelComp") ) %>%
  unnest( summary )

## # A tibble: 840 x 16
##    .universe cycle_length certainty menstrual_calcu… fertile relationship_st…
##        <int> <chr>        <chr>     <chr>            <chr>   <chr>           
##  1         1 cl_option1   cer_opti… mc_option1       fer_op… rs_option1      
##  2         1 cl_option1   cer_opti… mc_option1       fer_op… rs_option1      
##  3         1 cl_option1   cer_opti… mc_option1       fer_op… rs_option1      
##  4         1 cl_option1   cer_opti… mc_option1       fer_op… rs_option1      
##  5         2 cl_option2   cer_opti… mc_option1       fer_op… rs_option1      
##  6         2 cl_option2   cer_opti… mc_option1       fer_op… rs_option1      
##  7         2 cl_option2   cer_opti… mc_option1       fer_op… rs_option1      
##  8         2 cl_option2   cer_opti… mc_option1       fer_op… rs_option1      
##  9         4 cl_option1   cer_opti… mc_option1       fer_op… rs_option1      
## 10         4 cl_option1   cer_opti… mc_option1       fer_op… rs_option1      
## # … with 830 more rows, and 10 more variables: .parameter_assignment <list>,
## #   .code <list>, .results <list>, term <chr>, estimate <dbl>, std.error <dbl>,
## #   statistic <dbl>, p.value <dbl>, conf.low <dbl>, conf.high <dbl>
…
