Extracting and Visualising the results of a multiverse analysis • multiverse
…
Extracting the results

All the computed summaries (summary_RelComp,
summary_FiscConsComp, summary_SocConsComp,
summary_Donate and summary_Vote) are stored
within .results column (a separate environment) in the
multiverse table. We can extract these summaries as a tibble using and
store it in a separate column, and then unnest this new column:

expand(M) %>%
  mutate( summary = map(.results, "summary_RelComp") ) %>%
  unnest( summary )

## # A tibble: 840 × 16
##    .universe cycle_length certainty   menstrual_calcul… fertile relationship_st…
##        <int> <chr>        <chr>       <chr>             <chr>   <chr>           
##  1         1 cl_option1   cer_option1 mc_option1        fer_op… rs_option1      
##  2         1 cl_option1   cer_option1 mc_option1        fer_op… rs_option1      
##  3         1 cl_option1   cer_option1 mc_option1        fer_op… rs_option1      
##  4         1 cl_option1   cer_option1 mc_option1        fer_op… rs_option1      
##  5         2 cl_option1   cer_option1 mc_option1        fer_op… rs_option2      
##  6         2 cl_option1   cer_option1 mc_option1        fer_op… rs_option2      
##  7         2 cl_option1   cer_option1 mc_option1        fer_op… rs_option2      
##  8         2 cl_option1   cer_option1 mc_option1        fer_op… rs_option2      
##  9         3 cl_option1   cer_option1 mc_option1        fer_op… rs_option3      
## 10         3 cl_option1   cer_option1 mc_option1        fer_op… rs_option3      
## # … with 830 more rows, and 10 more variables: .parameter_assignment <list>,
## #   .code <list>, .results <list>, term <chr>, estimate <dbl>, std.error <dbl>,
## #   statistic <dbl>, p.value <dbl>, conf.low <dbl>, conf.high <dbl>
…
