Define multiple analysis paths for a step in the multiverse — branch • multiverse
…
# declaring multiple options for a data processing step (calculating a new variable) 
data(durante)
data.durante <- durante

data.durante  %>%
    mutate( ComputedCycleLength = StartDateofLastPeriod - StartDateofPeriodBeforeLast ) %>%
    mutate( NextMenstrualOnset = StartDateNext)

#> # A tibble: 502 x 26
#>    WorkerID  Rel1  Rel2  Rel3 Abortion Marriage StemCell RestrictAbortion
#>       <dbl> <dbl> <dbl> <dbl>    <dbl>    <dbl>    <dbl>            <dbl>
#>  1        1     8     8     7        2        7        7                7
#>  2        2     8     7     7        7        2        5                1
#>  3        3     6     6     2        3        1        6                4
#>  4        4     7     8     6        7        5        6                2
#>  5        5     7     7     9        7        1        4                1
#>  6        6     9     9     9        1        7        6                7
#>  7        7     5     8     5        5        4        5                5
#>  8        8     1     1     1        7        1        6                1
#>  9        9     7     7     7        3        1        6                1
#> 10       10     6     6     6        5        5        5                1
#> # … with 492 more rows, and 18 more variables: Marijuana <dbl>,
#> #   FreeMarket <dbl>, RichTax <dbl>, StLiving <dbl>, Profit <dbl>,
#> #   PrivSocialSec <dbl>, Sure1 <dbl>, Sure2 <dbl>, Relationship <dbl>,
#> #   ReportedCycleLength <dbl>, Vote <dbl>, Donate <dbl>, DateTesting <date>,
#> #   StartDateofLastPeriod <date>, StartDateofPeriodBeforeLast <date>,
#> #   StartDateNext <date>, ComputedCycleLength <drtn>, NextMenstrualOnset <date>
…
